"C:\Program Files\Java\jdk1.8.0_51\bin\java" -agentlib:jdwp=transport=dt_socket,address=127.0.0.1:56813,suspend=y,server=n -Dfile.encoding=windows-1252 -classpath "C:\Program Files\Java\jdk1.8.0_51\jre\lib\charsets.jar;C:\Program Files\Java\jdk1.8.0_51\jre\lib\deploy.jar;C:\Program Files\Java\jdk1.8.0_51\jre\lib\javaws.jar;C:\Program Files\Java\jdk1.8.0_51\jre\lib\jce.jar;C:\Program Files\Java\jdk1.8.0_51\jre\lib\jfr.jar;C:\Program Files\Java\jdk1.8.0_51\jre\lib\jfxswt.jar;C:\Program Files\Java\jdk1.8.0_51\jre\lib\jsse.jar;C:\Program Files\Java\jdk1.8.0_51\jre\lib\management-agent.jar;C:\Program Files\Java\jdk1.8.0_51\jre\lib\plugin.jar;C:\Program Files\Java\jdk1.8.0_51\jre\lib\resources.jar;C:\Program Files\Java\jdk1.8.0_51\jre\lib\rt.jar;C:\Program Files\Java\jdk1.8.0_51\jre\lib\ext\access-bridge-64.jar;C:\Program Files\Java\jdk1.8.0_51\jre\lib\ext\cldrdata.jar;C:\Program Files\Java\jdk1.8.0_51\jre\lib\ext\dnsns.jar;C:\Program Files\Java\jdk1.8.0_51\jre\lib\ext\jaccess.jar;C:\Program Files\Java\jdk1.8.0_51\jre\lib\ext\jfxrt.jar;C:\Program Files\Java\jdk1.8.0_51\jre\lib\ext\localedata.jar;C:\Program Files\Java\jdk1.8.0_51\jre\lib\ext\nashorn.jar;C:\Program Files\Java\jdk1.8.0_51\jre\lib\ext\sunec.jar;C:\Program Files\Java\jdk1.8.0_51\jre\lib\ext\sunjce_provider.jar;C:\Program Files\Java\jdk1.8.0_51\jre\lib\ext\sunmscapi.jar;C:\Program Files\Java\jdk1.8.0_51\jre\lib\ext\sunpkcs11.jar;C:\Program Files\Java\jdk1.8.0_51\jre\lib\ext\zipfs.jar;D:\Dropbox (Personal)\FARRIS_DOCS\School\Distributed-Systems\ds-project\build\classes\production\ds-project;C:\Program Files (x86)\JetBrains\IntelliJ IDEA 14.1.4\lib\idea_rt.jar" DebugMaster 7 10
Connected to the target VM, address: '127.0.0.1:56813', transport: 'socket'
[Debug-Master] Debug Master...at your service!
[Debug-Master] N=7, W=10
Root node
Child node:2
[ChildNodes.java]<1>Adding child node 2:localhost/127.0.0.1:10002
Child node:3
[ChildNodes.java]<1>Adding child node 3:localhost/127.0.0.1:10003
parentStart:1 parentEnd:1 currentStart:2 currentEnd:3 childStart:4 childEnd:7 nodesInPreviousLevel:1 nodesInCurrentLevel:2 nodesInNextLevel:4 nodeLevel:1
Level:1 Node#:2
[ParentNodes.java]<2>Adding parent node 1:localhost/127.0.0.1:10001
Parent node:1, 
[ChildNodes.java]<2>Adding child node 4:localhost/127.0.0.1:10004
Child node:4, [ChildNodes.java]<2>Adding child node 5:localhost/127.0.0.1:10005
Child node:5, [ChildNodes.java]<2>Adding child node 6:localhost/127.0.0.1:10006
Child node:6, [ChildNodes.java]<2>Adding child node 7:localhost/127.0.0.1:10007
Child node:7, 
Level:1 Node#:3
[ParentNodes.java]<3>Adding parent node 1:localhost/127.0.0.1:10001
Parent node:1, 
[ChildNodes.java]<3>Adding child node 4:localhost/127.0.0.1:10004
Child node:4, [ChildNodes.java]<3>Adding child node 5:localhost/127.0.0.1:10005
Child node:5, [ChildNodes.java]<3>Adding child node 6:localhost/127.0.0.1:10006
Child node:6, [ChildNodes.java]<3>Adding child node 7:localhost/127.0.0.1:10007
Child node:7, 

parentStart:2 parentEnd:3 currentStart:4 currentEnd:7 childStart:8 childEnd:7 nodesInPreviousLevel:2 nodesInCurrentLevel:4 nodesInNextLevel:8 nodeLevel:2
Level:2 Node#:4
[ParentNodes.java]<4>Adding parent node 2:localhost/127.0.0.1:10002
Parent node:2, [ParentNodes.java]<4>Adding parent node 3:localhost/127.0.0.1:10003
Parent node:3, 

Level:2 Node#:5
[ParentNodes.java]<5>Adding parent node 2:localhost/127.0.0.1:10002
Parent node:2, [ParentNodes.java]<5>Adding parent node 3:localhost/127.0.0.1:10003
Parent node:3, 

Level:2 Node#:6
[ParentNodes.java]<6>Adding parent node 2:localhost/127.0.0.1:10002
Parent node:2, [ParentNodes.java]<6>Adding parent node 3:localhost/127.0.0.1:10003
Parent node:3, 

Level:2 Node#:7
[ParentNodes.java]<7>Adding parent node 2:localhost/127.0.0.1:10002
Parent node:2, [ParentNodes.java]<7>Adding parent node 3:localhost/127.0.0.1:10003
Parent node:3, 


[Node.java]<1> thread starting
[Node.java]<2> thread starting
[Node.java]<3> thread starting
[Node.java]<4> thread starting
[Node.java]<5> thread starting
[Node.java]<6> thread starting
[Node.java]<7> thread starting
[Debug-Master] sent to:1 cmd:start
[ChildNodes.java]<1>In ChildNodes client:localhost/127.0.0.1:10002 cmd:newRound 10
[ChildNodes.java]<2>In ChildNodes client:localhost/127.0.0.1:10004 cmd:newRound 10
[ChildNodes.java]<2>Server received newRound 10
[ChildNodes.java]<2>In ChildNodes client:localhost/127.0.0.1:10005 cmd:newRound 10
[ChildNodes.java]<2>Server received newRound 10
[ChildNodes.java]<2>In ChildNodes client:localhost/127.0.0.1:10006 cmd:newRound 10
[ChildNodes.java]<2>Server received newRound 10
[ChildNodes.java]<2>In ChildNodes client:localhost/127.0.0.1:10007 cmd:newRound 10
[ChildNodes.java]<2>Server received newRound 10
[ChildNodes.java]<1>Server received newRound 10
[ChildNodes.java]<1>In ChildNodes client:localhost/127.0.0.1:10003 cmd:newRound 10
[ChildNodes.java]<3>In ChildNodes client:localhost/127.0.0.1:10004 cmd:newRound 10
[ChildNodes.java]<3>Server received newRound 10
[ChildNodes.java]<3>In ChildNodes client:localhost/127.0.0.1:10005 cmd:newRound 10
[ChildNodes.java]<3>Server received newRound 10
[ChildNodes.java]<3>In ChildNodes client:localhost/127.0.0.1:10006 cmd:newRound 10
[ChildNodes.java]<3>Server received newRound 10
[ChildNodes.java]<3>In ChildNodes client:localhost/127.0.0.1:10007 cmd:newRound 10
[ChildNodes.java]<3>Server received newRound 10
[ChildNodes.java]<1>Server received newRound 10
[Debug-Master] received:Server received start
[Debug-Master] sent to:1 cmd:trigger
[tcAlgorithm] Cx=1, tau=Infinity, level=0
[Debug-Master] received:Server received trigger
[Debug-Master] sent to:2 cmd:trigger
[tcAlgorithm] Cx=1, tau=Infinity, level=1
[Debug-Master] received:Server received trigger
[Debug-Master] sent to:3 cmd:trigger
[tcAlgorithm] Cx=1, tau=Infinity, level=1
[Debug-Master] received:Server received trigger
[Debug-Master] sent to:4 cmd:trigger
[tcAlgorithm] Cx=1, tau=Infinity, level=2
[Debug-Master] received:Server received trigger
[Debug-Master] sent to:5 cmd:trigger
[tcAlgorithm] Cx=1, tau=Infinity, level=2
[Debug-Master] received:Server received trigger
[Debug-Master] sent to:6 cmd:trigger
[tcAlgorithm] Cx=1, tau=Infinity, level=2
[Debug-Master] received:Server received trigger
[Debug-Master] sent to:7 cmd:trigger
[tcAlgorithm] Cx=1, tau=Infinity, level=2
[Debug-Master] received:Server received trigger
[Debug-Master] sent to:1 cmd:trigger
[tcAlgorithm] Cx=2, tau=Infinity, level=0
[Debug-Master] received:Server received trigger
[Debug-Master] sent to:2 cmd:trigger
[tcAlgorithm] Cx=2, tau=Infinity, level=1
[Debug-Master] received:Server received trigger
[Debug-Master] sent to:3 cmd:trigger
[tcAlgorithm] Cx=2, tau=Infinity, level=1
[Debug-Master] received:Server received trigger
[Debug-Master] sent to:4 cmd:trigger
[tcAlgorithm] Cx=2, tau=Infinity, level=2
[Debug-Master] received:Server received trigger
[Debug-Master] sent to:5 cmd:trigger
[tcAlgorithm] Cx=2, tau=Infinity, level=2
[Debug-Master] received:Server received trigger
[Debug-Master] sent to:6 cmd:trigger
[tcAlgorithm] Cx=2, tau=Infinity, level=2
[Debug-Master] received:Server received trigger
[Debug-Master] sent to:7 cmd:trigger
[tcAlgorithm] Cx=2, tau=Infinity, level=2
[Debug-Master] received:Server received trigger
[Debug-Master] sent to:1 cmd:trigger
[tcAlgorithm] Cx=3, tau=Infinity, level=0
[Debug-Master] received:Server received trigger
[Debug-Master] sent to:2 cmd:trigger
[tcAlgorithm] Cx=3, tau=Infinity, level=1
[Debug-Master] received:Server received trigger
[Debug-Master] sent to:3 cmd:trigger
[tcAlgorithm] Cx=3, tau=Infinity, level=1
[Debug-Master] received:Server received trigger
[Debug-Master] sent to:4 cmd:trigger
[tcAlgorithm] Cx=3, tau=Infinity, level=2
[Debug-Master] received:Server received trigger
[Debug-Master] sent to:5 cmd:trigger
[tcAlgorithm] Cx=3, tau=Infinity, level=2
[Debug-Master] received:Server received trigger
[Debug-Master] sent to:6 cmd:trigger
[tcAlgorithm] Cx=3, tau=Infinity, level=2
[Debug-Master] received:Server received trigger
[Debug-Master] sent to:7 cmd:trigger
[tcAlgorithm] Cx=3, tau=Infinity, level=2
[Debug-Master] received:Server received trigger
[Debug-Master] sent to:1 cmd:trigger
[tcAlgorithm] Cx=4, tau=Infinity, level=0
[Debug-Master] received:Server received trigger
[Debug-Master] sent to:2 cmd:trigger
[tcAlgorithm] Cx=4, tau=Infinity, level=1
[Debug-Master] received:Server received trigger
[Debug-Master] sent to:3 cmd:trigger
[tcAlgorithm] Cx=4, tau=Infinity, level=1
[Debug-Master] received:Server received trigger
[Debug-Master] sent to:4 cmd:trigger
[tcAlgorithm] Cx=4, tau=Infinity, level=2
[Debug-Master] received:Server received trigger
[Debug-Master] sent to:5 cmd:trigger
[tcAlgorithm] Cx=4, tau=Infinity, level=2
[Debug-Master] received:Server received trigger
[Debug-Master] sent to:6 cmd:trigger
[tcAlgorithm] Cx=4, tau=Infinity, level=2
[Debug-Master] received:Server received trigger
[Debug-Master] sent to:7 cmd:trigger
[tcAlgorithm] Cx=4, tau=Infinity, level=2
[Debug-Master] received:Server received trigger
[Debug-Master] sent to:1 cmd:trigger
[tcAlgorithm] Cx=5, tau=Infinity, level=0
[Debug-Master] received:Server received trigger
[Debug-Master] sent to:2 cmd:trigger
[tcAlgorithm] Cx=5, tau=Infinity, level=1
[Debug-Master] received:Server received trigger
[Debug-Master] sent to:3 cmd:trigger
[tcAlgorithm] Cx=5, tau=Infinity, level=1
[Debug-Master] received:Server received trigger
[Debug-Master] sent to:4 cmd:trigger
[tcAlgorithm] Cx=5, tau=Infinity, level=2
[Debug-Master] received:Server received trigger
[Debug-Master] sent to:5 cmd:trigger
[tcAlgorithm] Cx=5, tau=Infinity, level=2
[Debug-Master] received:Server received trigger
[Debug-Master] sent to:6 cmd:trigger
[tcAlgorithm] Cx=5, tau=Infinity, level=2
[Debug-Master] received:Server received trigger
[Debug-Master] sent to:7 cmd:trigger
[tcAlgorithm] Cx=5, tau=Infinity, level=2
[Debug-Master] received:Server received trigger
[Debug-Master] sent to:1 cmd:trigger
[tcAlgorithm] Cx=6, tau=Infinity, level=0
[Debug-Master] received:Server received trigger
[Debug-Master] sent to:2 cmd:trigger
[tcAlgorithm] Cx=6, tau=Infinity, level=1
[Debug-Master] received:Server received trigger
[Debug-Master] sent to:3 cmd:trigger
[tcAlgorithm] Cx=6, tau=Infinity, level=1
[Debug-Master] received:Server received trigger
[Debug-Master] sent to:4 cmd:trigger
[tcAlgorithm] Cx=6, tau=Infinity, level=2
[Debug-Master] received:Server received trigger
[Debug-Master] sent to:5 cmd:trigger
[tcAlgorithm] Cx=6, tau=Infinity, level=2
[Debug-Master] received:Server received trigger
[Debug-Master] sent to:6 cmd:trigger
[tcAlgorithm] Cx=6, tau=Infinity, level=2
[Debug-Master] received:Server received trigger
[Debug-Master] sent to:7 cmd:trigger
[tcAlgorithm] Cx=6, tau=Infinity, level=2
[Debug-Master] received:Server received trigger
[Debug-Master] sent to:1 cmd:trigger
[tcAlgorithm] Cx=7, tau=Infinity, level=0
[Debug-Master] received:Server received trigger
[Debug-Master] sent to:2 cmd:trigger
[tcAlgorithm] Cx=7, tau=Infinity, level=1
[Debug-Master] received:Server received trigger
[Debug-Master] sent to:3 cmd:trigger
[tcAlgorithm] Cx=7, tau=Infinity, level=1
[Debug-Master] received:Server received trigger
[Debug-Master] sent to:4 cmd:trigger
[tcAlgorithm] Cx=7, tau=Infinity, level=2
[Debug-Master] received:Server received trigger
[Debug-Master] sent to:5 cmd:trigger
[tcAlgorithm] Cx=7, tau=Infinity, level=2
[Debug-Master] received:Server received trigger
[Debug-Master] sent to:6 cmd:trigger
[tcAlgorithm] Cx=7, tau=Infinity, level=2
[Debug-Master] received:Server received trigger
[Debug-Master] sent to:7 cmd:trigger
[tcAlgorithm] Cx=7, tau=Infinity, level=2
[Debug-Master] received:Server received trigger
[Debug-Master] sent to:1 cmd:trigger
[tcAlgorithm] Cx=8, tau=Infinity, level=0
[Debug-Master] received:Server received trigger
[Debug-Master] sent to:2 cmd:trigger
[tcAlgorithm] Cx=8, tau=Infinity, level=1
[Debug-Master] received:Server received trigger
[Debug-Master] sent to:3 cmd:trigger
[tcAlgorithm] Cx=8, tau=Infinity, level=1
[Debug-Master] received:Server received trigger
[Debug-Master] sent to:4 cmd:trigger
[tcAlgorithm] Cx=8, tau=Infinity, level=2
[Debug-Master] received:Server received trigger
[Debug-Master] sent to:5 cmd:trigger
[tcAlgorithm] Cx=8, tau=Infinity, level=2
[Debug-Master] received:Server received trigger
[Debug-Master] sent to:6 cmd:trigger
[tcAlgorithm] Cx=8, tau=Infinity, level=2
[Debug-Master] received:Server received trigger
[Debug-Master] sent to:7 cmd:trigger
[tcAlgorithm] Cx=8, tau=Infinity, level=2
[Debug-Master] received:Server received trigger
[Debug-Master] sent to:1 cmd:trigger
[tcAlgorithm] Cx=9, tau=Infinity, level=0
[Debug-Master] received:Server received trigger
[Debug-Master] sent to:2 cmd:trigger
[tcAlgorithm] Cx=9, tau=Infinity, level=1
[Debug-Master] received:Server received trigger
[Debug-Master] sent to:3 cmd:trigger
[tcAlgorithm] Cx=9, tau=Infinity, level=1
[Debug-Master] received:Server received trigger
[Debug-Master] sent to:4 cmd:trigger
[tcAlgorithm] Cx=9, tau=Infinity, level=2
[Debug-Master] received:Server received trigger
[Debug-Master] sent to:5 cmd:trigger
[tcAlgorithm] Cx=9, tau=Infinity, level=2
[Debug-Master] received:Server received trigger
[Debug-Master] sent to:6 cmd:trigger
[tcAlgorithm] Cx=9, tau=Infinity, level=2
[Debug-Master] received:Server received trigger
[Debug-Master] sent to:7 cmd:trigger
[tcAlgorithm] Cx=9, tau=Infinity, level=2
[Debug-Master] received:Server received trigger
[Debug-Master] sent to:1 cmd:trigger
[tcAlgorithm] Cx=10, tau=Infinity, level=0
[Debug-Master] received:Server received trigger
[Debug-Master] sent to:2 cmd:trigger
[tcAlgorithm] Cx=10, tau=Infinity, level=1
[Debug-Master] received:Server received trigger
[Debug-Master] sent to:3 cmd:trigger
[tcAlgorithm] Cx=10, tau=Infinity, level=1
[Debug-Master] received:Server received trigger
[Debug-Master] sent to:4 cmd:trigger
[tcAlgorithm] Cx=10, tau=Infinity, level=2
[Debug-Master] received:Server received trigger
[Debug-Master] sent to:5 cmd:trigger
[tcAlgorithm] Cx=10, tau=Infinity, level=2
[Debug-Master] received:Server received trigger
[Debug-Master] sent to:6 cmd:trigger
[tcAlgorithm] Cx=10, tau=Infinity, level=2
[Debug-Master] received:Server received trigger
[Debug-Master] sent to:7 cmd:trigger
[tcAlgorithm] Cx=10, tau=Infinity, level=2
[Debug-Master] received:Server received trigger
[Debug-Master] sent to:1 cmd:trigger
[tcAlgorithm] Cx=11, tau=Infinity, level=0
[Debug-Master] received:Server received trigger
[Debug-Master] sent to:2 cmd:trigger
[tcAlgorithm] Cx=11, tau=Infinity, level=1
[Debug-Master] received:Server received trigger
[Debug-Master] sent to:3 cmd:trigger
[tcAlgorithm] Cx=11, tau=Infinity, level=1
[Debug-Master] received:Server received trigger
[Debug-Master] sent to:4 cmd:trigger
[tcAlgorithm] Cx=11, tau=Infinity, level=2
[Debug-Master] received:Server received trigger
[Debug-Master] sent to:5 cmd:trigger
[tcAlgorithm] Cx=11, tau=Infinity, level=2
[Debug-Master] received:Server received trigger
[Debug-Master] sent to:6 cmd:trigger
[tcAlgorithm] Cx=11, tau=Infinity, level=2
[Debug-Master] received:Server received trigger
[Debug-Master] sent to:7 cmd:trigger
[tcAlgorithm] Cx=11, tau=Infinity, level=2
[Debug-Master] received:Server received trigger
[Debug-Master] sent to:1 cmd:trigger
[tcAlgorithm] Cx=12, tau=Infinity, level=0
[Debug-Master] received:Server received trigger
[Debug-Master] sent to:2 cmd:trigger
[tcAlgorithm] Cx=12, tau=Infinity, level=1
[Debug-Master] received:Server received trigger
[Debug-Master] sent to:3 cmd:trigger
[tcAlgorithm] Cx=12, tau=Infinity, level=1
[Debug-Master] received:Server received trigger
[Debug-Master] sent to:4 cmd:trigger
[tcAlgorithm] Cx=12, tau=Infinity, level=2
[Debug-Master] received:Server received trigger
[Debug-Master] sent to:5 cmd:trigger
[tcAlgorithm] Cx=12, tau=Infinity, level=2
[Debug-Master] received:Server received trigger
[Debug-Master] sent to:6 cmd:trigger
[tcAlgorithm] Cx=12, tau=Infinity, level=2
[Debug-Master] received:Server received trigger
[Debug-Master] sent to:7 cmd:trigger
[tcAlgorithm] Cx=12, tau=Infinity, level=2
[Debug-Master] received:Server received trigger
[Debug-Master] sent to:1 cmd:trigger
[tcAlgorithm] Cx=13, tau=Infinity, level=0
[Debug-Master] received:Server received trigger
[Debug-Master] sent to:2 cmd:trigger
[tcAlgorithm] Cx=13, tau=Infinity, level=1
[Debug-Master] received:Server received trigger
[Debug-Master] sent to:3 cmd:trigger
[tcAlgorithm] Cx=13, tau=Infinity, level=1
[Debug-Master] received:Server received trigger
[Debug-Master] sent to:4 cmd:trigger
[tcAlgorithm] Cx=13, tau=Infinity, level=2
[Debug-Master] received:Server received trigger
[Debug-Master] sent to:5 cmd:trigger
[tcAlgorithm] Cx=13, tau=Infinity, level=2
[Debug-Master] received:Server received trigger
[Debug-Master] sent to:6 cmd:trigger
[tcAlgorithm] Cx=13, tau=Infinity, level=2
[Debug-Master] received:Server received trigger
[Debug-Master] sent to:7 cmd:trigger
[tcAlgorithm] Cx=13, tau=Infinity, level=2
[Debug-Master] received:Server received trigger
[Debug-Master] sent to:1 cmd:trigger
[tcAlgorithm] Cx=14, tau=Infinity, level=0
[Debug-Master] received:Server received trigger
[Debug-Master] sent to:2 cmd:trigger
[tcAlgorithm] Cx=14, tau=Infinity, level=1
[Debug-Master] received:Server received trigger
[Debug-Master] sent to:3 cmd:trigger
[tcAlgorithm] Cx=14, tau=Infinity, level=1
[Debug-Master] received:Server received trigger
[Debug-Master] sent to:4 cmd:trigger
[tcAlgorithm] Cx=14, tau=Infinity, level=2
[Debug-Master] received:Server received trigger
[Debug-Master] sent to:5 cmd:trigger
[tcAlgorithm] Cx=14, tau=Infinity, level=2
[Debug-Master] received:Server received trigger
[Debug-Master] sent to:6 cmd:trigger
[tcAlgorithm] Cx=14, tau=Infinity, level=2
[Debug-Master] received:Server received trigger
[Debug-Master] sent to:7 cmd:trigger
[tcAlgorithm] Cx=14, tau=Infinity, level=2
[Debug-Master] received:Server received trigger
[Debug-Master] sent to:1 cmd:trigger
[tcAlgorithm] Cx=15, tau=Infinity, level=0
[Debug-Master] received:Server received trigger
[Debug-Master] sent to:2 cmd:trigger
[tcAlgorithm] Cx=15, tau=Infinity, level=1
[Debug-Master] received:Server received trigger
[Debug-Master] sent to:3 cmd:trigger
[tcAlgorithm] Cx=15, tau=Infinity, level=1
[Debug-Master] received:Server received trigger
[Debug-Master] sent to:4 cmd:trigger
[tcAlgorithm] Cx=15, tau=Infinity, level=2
[Debug-Master] received:Server received trigger
[Debug-Master] sent to:5 cmd:trigger
[tcAlgorithm] Cx=15, tau=Infinity, level=2
[Debug-Master] received:Server received trigger
[Debug-Master] sent to:6 cmd:trigger
[tcAlgorithm] Cx=15, tau=Infinity, level=2
[Debug-Master] received:Server received trigger
[Debug-Master] sent to:7 cmd:trigger
[tcAlgorithm] Cx=15, tau=Infinity, level=2
[Debug-Master] received:Server received trigger
[Debug-Master] sent to:1 cmd:trigger
[tcAlgorithm] Cx=16, tau=Infinity, level=0
[Debug-Master] received:Server received trigger
[Debug-Master] sent to:2 cmd:trigger
[tcAlgorithm] Cx=16, tau=Infinity, level=1
[Debug-Master] received:Server received trigger
[Debug-Master] sent to:3 cmd:trigger
[tcAlgorithm] Cx=16, tau=Infinity, level=1
[Debug-Master] received:Server received trigger
[Debug-Master] sent to:4 cmd:trigger
[tcAlgorithm] Cx=16, tau=Infinity, level=2
[Debug-Master] received:Server received trigger
[Debug-Master] sent to:5 cmd:trigger
[tcAlgorithm] Cx=16, tau=Infinity, level=2
[Debug-Master] received:Server received trigger
[Debug-Master] sent to:6 cmd:trigger
[tcAlgorithm] Cx=16, tau=Infinity, level=2
[Debug-Master] received:Server received trigger
[Debug-Master] sent to:7 cmd:trigger
[tcAlgorithm] Cx=16, tau=Infinity, level=2
[Debug-Master] received:Server received trigger
[Debug-Master] sent to:1 cmd:trigger
[tcAlgorithm] Cx=17, tau=Infinity, level=0
[Debug-Master] received:Server received trigger
[Debug-Master] sent to:2 cmd:trigger
[tcAlgorithm] Cx=17, tau=Infinity, level=1
[Debug-Master] received:Server received trigger
[Debug-Master] sent to:3 cmd:trigger
[tcAlgorithm] Cx=17, tau=Infinity, level=1
[Debug-Master] received:Server received trigger
[Debug-Master] sent to:4 cmd:trigger
[tcAlgorithm] Cx=17, tau=Infinity, level=2
[Debug-Master] received:Server received trigger
[Debug-Master] sent to:5 cmd:trigger
[tcAlgorithm] Cx=17, tau=Infinity, level=2
[Debug-Master] received:Server received trigger
[Debug-Master] sent to:6 cmd:trigger
[tcAlgorithm] Cx=17, tau=Infinity, level=2
[Debug-Master] received:Server received trigger
[Debug-Master] sent to:7 cmd:trigger
[tcAlgorithm] Cx=17, tau=Infinity, level=2
[Debug-Master] received:Server received trigger
[Debug-Master] sent to:1 cmd:trigger
[tcAlgorithm] Cx=18, tau=Infinity, level=0
[Debug-Master] received:Server received trigger
[Debug-Master] sent to:2 cmd:trigger
[tcAlgorithm] Cx=18, tau=Infinity, level=1
[Debug-Master] received:Server received trigger
[Debug-Master] sent to:3 cmd:trigger
[tcAlgorithm] Cx=18, tau=Infinity, level=1
[Debug-Master] received:Server received trigger
[Debug-Master] sent to:4 cmd:trigger
[tcAlgorithm] Cx=18, tau=Infinity, level=2
[Debug-Master] received:Server received trigger
[Debug-Master] sent to:5 cmd:trigger
[tcAlgorithm] Cx=18, tau=Infinity, level=2
[Debug-Master] received:Server received trigger
[Debug-Master] sent to:6 cmd:trigger
[tcAlgorithm] Cx=18, tau=Infinity, level=2
[Debug-Master] received:Server received trigger
[Debug-Master] sent to:7 cmd:trigger
[tcAlgorithm] Cx=18, tau=Infinity, level=2
[Debug-Master] received:Server received trigger
[Debug-Master] sent to:1 cmd:trigger
[tcAlgorithm] Cx=19, tau=Infinity, level=0
[Debug-Master] received:Server received trigger
[Debug-Master] sent to:2 cmd:trigger
[tcAlgorithm] Cx=19, tau=Infinity, level=1
[Debug-Master] received:Server received trigger
[Debug-Master] sent to:3 cmd:trigger
[tcAlgorithm] Cx=19, tau=Infinity, level=1
[Debug-Master] received:Server received trigger
[Debug-Master] sent to:4 cmd:trigger
[tcAlgorithm] Cx=19, tau=Infinity, level=2
[Debug-Master] received:Server received trigger
[Debug-Master] sent to:5 cmd:trigger
[tcAlgorithm] Cx=19, tau=Infinity, level=2
[Debug-Master] received:Server received trigger
[Debug-Master] sent to:6 cmd:trigger
[tcAlgorithm] Cx=19, tau=Infinity, level=2
[Debug-Master] received:Server received trigger
[Debug-Master] sent to:7 cmd:trigger
[tcAlgorithm] Cx=19, tau=Infinity, level=2
[Debug-Master] received:Server received trigger
[Debug-Master] sent to:1 cmd:trigger
[tcAlgorithm] Cx=20, tau=Infinity, level=0
[Debug-Master] received:Server received trigger
[Debug-Master] sent to:2 cmd:trigger
[tcAlgorithm] Cx=20, tau=Infinity, level=1
[Debug-Master] received:Server received trigger
[Debug-Master] sent to:3 cmd:trigger
[tcAlgorithm] Cx=20, tau=Infinity, level=1
[Debug-Master] received:Server received trigger
[Debug-Master] sent to:4 cmd:trigger
[tcAlgorithm] Cx=20, tau=Infinity, level=2
[Debug-Master] received:Server received trigger
[Debug-Master] sent to:5 cmd:trigger
[tcAlgorithm] Cx=20, tau=Infinity, level=2
[Debug-Master] received:Server received trigger
[Debug-Master] sent to:6 cmd:trigger
[tcAlgorithm] Cx=20, tau=Infinity, level=2
[Debug-Master] received:Server received trigger
[Debug-Master] sent to:7 cmd:trigger
[tcAlgorithm] Cx=20, tau=Infinity, level=2
[Debug-Master] received:Server received trigger
[Debug-Master] sent to:1 cmd:trigger
[tcAlgorithm] Cx=21, tau=Infinity, level=0
[Debug-Master] received:Server received trigger
[Debug-Master] sent to:2 cmd:trigger
[tcAlgorithm] Cx=21, tau=Infinity, level=1
[Debug-Master] received:Server received trigger
[Debug-Master] sent to:3 cmd:trigger
[tcAlgorithm] Cx=21, tau=Infinity, level=1
[Debug-Master] received:Server received trigger
[Debug-Master] sent to:4 cmd:trigger
[tcAlgorithm] Cx=21, tau=Infinity, level=2
[Debug-Master] received:Server received trigger
[Debug-Master] sent to:5 cmd:trigger
[tcAlgorithm] Cx=21, tau=Infinity, level=2
[Debug-Master] received:Server received trigger
[Debug-Master] sent to:6 cmd:trigger
[tcAlgorithm] Cx=21, tau=Infinity, level=2
[Debug-Master] received:Server received trigger
[Debug-Master] sent to:7 cmd:trigger
[tcAlgorithm] Cx=21, tau=Infinity, level=2
[Debug-Master] received:Server received trigger
[Debug-Master] sent to:1 cmd:trigger
[tcAlgorithm] Cx=22, tau=Infinity, level=0
[Debug-Master] received:Server received trigger
[Debug-Master] sent to:2 cmd:trigger
[tcAlgorithm] Cx=22, tau=Infinity, level=1
[Debug-Master] received:Server received trigger
[Debug-Master] sent to:3 cmd:trigger
[tcAlgorithm] Cx=22, tau=Infinity, level=1
[Debug-Master] received:Server received trigger
[Debug-Master] sent to:4 cmd:trigger
[tcAlgorithm] Cx=22, tau=Infinity, level=2
[Debug-Master] received:Server received trigger
[Debug-Master] sent to:5 cmd:trigger
[tcAlgorithm] Cx=22, tau=Infinity, level=2
[Debug-Master] received:Server received trigger
[Debug-Master] sent to:6 cmd:trigger
[tcAlgorithm] Cx=22, tau=Infinity, level=2
[Debug-Master] received:Server received trigger
[Debug-Master] sent to:7 cmd:trigger
[tcAlgorithm] Cx=22, tau=Infinity, level=2
[Debug-Master] received:Server received trigger
[Debug-Master] sent to:1 cmd:trigger
[tcAlgorithm] Cx=23, tau=Infinity, level=0
[Debug-Master] received:Server received trigger
[Debug-Master] sent to:2 cmd:trigger
[tcAlgorithm] Cx=23, tau=Infinity, level=1
[Debug-Master] received:Server received trigger
[Debug-Master] sent to:3 cmd:trigger
[tcAlgorithm] Cx=23, tau=Infinity, level=1
[Debug-Master] received:Server received trigger
[Debug-Master] sent to:4 cmd:trigger
[tcAlgorithm] Cx=23, tau=Infinity, level=2
[Debug-Master] received:Server received trigger
[Debug-Master] sent to:5 cmd:trigger
[tcAlgorithm] Cx=23, tau=Infinity, level=2
[Debug-Master] received:Server received trigger
[Debug-Master] sent to:6 cmd:trigger
[tcAlgorithm] Cx=23, tau=Infinity, level=2
[Debug-Master] received:Server received trigger
[Debug-Master] sent to:7 cmd:trigger
[tcAlgorithm] Cx=23, tau=Infinity, level=2
[Debug-Master] received:Server received trigger
[Debug-Master] sent to:1 cmd:trigger
[tcAlgorithm] Cx=24, tau=Infinity, level=0
[Debug-Master] received:Server received trigger
[Debug-Master] sent to:2 cmd:trigger
[tcAlgorithm] Cx=24, tau=Infinity, level=1
[Debug-Master] received:Server received trigger
[Debug-Master] sent to:3 cmd:trigger
[tcAlgorithm] Cx=24, tau=Infinity, level=1
[Debug-Master] received:Server received trigger
[Debug-Master] sent to:4 cmd:trigger
[tcAlgorithm] Cx=24, tau=Infinity, level=2
[Debug-Master] received:Server received trigger
[Debug-Master] sent to:5 cmd:trigger
[tcAlgorithm] Cx=24, tau=Infinity, level=2
[Debug-Master] received:Server received trigger
[Debug-Master] sent to:6 cmd:trigger
[tcAlgorithm] Cx=24, tau=Infinity, level=2
[Debug-Master] received:Server received trigger
[Debug-Master] sent to:7 cmd:trigger
[tcAlgorithm] Cx=24, tau=Infinity, level=2
[Debug-Master] received:Server received trigger
[Debug-Master] sent to:1 cmd:trigger
[tcAlgorithm] Cx=25, tau=Infinity, level=0
[Debug-Master] received:Server received trigger
[Debug-Master] sent to:2 cmd:trigger
[tcAlgorithm] Cx=25, tau=Infinity, level=1
[Debug-Master] received:Server received trigger
[Debug-Master] sent to:3 cmd:trigger
[tcAlgorithm] Cx=25, tau=Infinity, level=1
[Debug-Master] received:Server received trigger
[Debug-Master] sent to:4 cmd:trigger
[tcAlgorithm] Cx=25, tau=Infinity, level=2
[Debug-Master] received:Server received trigger
[Debug-Master] sent to:5 cmd:trigger
[tcAlgorithm] Cx=25, tau=Infinity, level=2
[Debug-Master] received:Server received trigger
[Debug-Master] sent to:6 cmd:trigger
[tcAlgorithm] Cx=25, tau=Infinity, level=2
[Debug-Master] received:Server received trigger
[Debug-Master] sent to:7 cmd:trigger
[tcAlgorithm] Cx=25, tau=Infinity, level=2
[Debug-Master] received:Server received trigger
[Debug-Master] sent to:1 cmd:trigger
[tcAlgorithm] Cx=26, tau=Infinity, level=0
[Debug-Master] received:Server received trigger
[Debug-Master] sent to:2 cmd:trigger
[tcAlgorithm] Cx=26, tau=Infinity, level=1
[Debug-Master] received:Server received trigger
[Debug-Master] sent to:3 cmd:trigger
[tcAlgorithm] Cx=26, tau=Infinity, level=1
[Debug-Master] received:Server received trigger
[Debug-Master] sent to:4 cmd:trigger
[tcAlgorithm] Cx=26, tau=Infinity, level=2
[Debug-Master] received:Server received trigger
[Debug-Master] sent to:5 cmd:trigger
[tcAlgorithm] Cx=26, tau=Infinity, level=2
[Debug-Master] received:Server received trigger
[Debug-Master] sent to:6 cmd:trigger
[tcAlgorithm] Cx=26, tau=Infinity, level=2
[Debug-Master] received:Server received trigger
[Debug-Master] sent to:7 cmd:trigger
[tcAlgorithm] Cx=26, tau=Infinity, level=2
[Debug-Master] received:Server received trigger
[Debug-Master] sent to:1 cmd:trigger
[tcAlgorithm] Cx=27, tau=Infinity, level=0
[Debug-Master] received:Server received trigger
[Debug-Master] sent to:2 cmd:trigger
[tcAlgorithm] Cx=27, tau=Infinity, level=1
[Debug-Master] received:Server received trigger
[Debug-Master] sent to:3 cmd:trigger
[tcAlgorithm] Cx=27, tau=Infinity, level=1
[Debug-Master] received:Server received trigger
[Debug-Master] sent to:4 cmd:trigger
[tcAlgorithm] Cx=27, tau=Infinity, level=2
[Debug-Master] received:Server received trigger
[Debug-Master] sent to:5 cmd:trigger
[tcAlgorithm] Cx=27, tau=Infinity, level=2
[Debug-Master] received:Server received trigger
[Debug-Master] sent to:6 cmd:trigger
[tcAlgorithm] Cx=27, tau=Infinity, level=2
[Debug-Master] received:Server received trigger
[Debug-Master] sent to:7 cmd:trigger
[tcAlgorithm] Cx=27, tau=Infinity, level=2
[Debug-Master] received:Server received trigger
[Debug-Master] sent to:1 cmd:trigger
[tcAlgorithm] Cx=28, tau=Infinity, level=0
[Debug-Master] received:Server received trigger
[Debug-Master] sent to:2 cmd:trigger
[tcAlgorithm] Cx=28, tau=Infinity, level=1
[Debug-Master] received:Server received trigger
[Debug-Master] sent to:3 cmd:trigger
[tcAlgorithm] Cx=28, tau=Infinity, level=1
[Debug-Master] received:Server received trigger
[Debug-Master] sent to:4 cmd:trigger
[tcAlgorithm] Cx=28, tau=Infinity, level=2
[Debug-Master] received:Server received trigger
[Debug-Master] sent to:5 cmd:trigger
[tcAlgorithm] Cx=28, tau=Infinity, level=2
[Debug-Master] received:Server received trigger
[Debug-Master] sent to:6 cmd:trigger
[tcAlgorithm] Cx=28, tau=Infinity, level=2
[Debug-Master] received:Server received trigger
[Debug-Master] sent to:7 cmd:trigger
[tcAlgorithm] Cx=28, tau=Infinity, level=2
[Debug-Master] received:Server received trigger
[Debug-Master] sent to:1 cmd:trigger
[tcAlgorithm] Cx=29, tau=Infinity, level=0
[Debug-Master] received:Server received trigger
[Debug-Master] sent to:2 cmd:trigger
[tcAlgorithm] Cx=29, tau=Infinity, level=1
[Debug-Master] received:Server received trigger
[Debug-Master] sent to:3 cmd:trigger
[tcAlgorithm] Cx=29, tau=Infinity, level=1
[Debug-Master] received:Server received trigger
[Debug-Master] sent to:4 cmd:trigger
[tcAlgorithm] Cx=29, tau=Infinity, level=2
[Debug-Master] received:Server received trigger
[Debug-Master] sent to:5 cmd:trigger
[tcAlgorithm] Cx=29, tau=Infinity, level=2
[Debug-Master] received:Server received trigger
[Debug-Master] sent to:6 cmd:trigger
[tcAlgorithm] Cx=29, tau=Infinity, level=2
[Debug-Master] received:Server received trigger
[Debug-Master] sent to:7 cmd:trigger
[tcAlgorithm] Cx=29, tau=Infinity, level=2
[Debug-Master] received:Server received trigger
[Debug-Master] sent to:1 cmd:trigger
[tcAlgorithm] Cx=30, tau=Infinity, level=0
[Debug-Master] received:Server received trigger
[Debug-Master] sent to:2 cmd:trigger
[tcAlgorithm] Cx=30, tau=Infinity, level=1
[Debug-Master] received:Server received trigger
[Debug-Master] sent to:3 cmd:trigger
[tcAlgorithm] Cx=30, tau=Infinity, level=1
[Debug-Master] received:Server received trigger
[Debug-Master] sent to:4 cmd:trigger
[tcAlgorithm] Cx=30, tau=Infinity, level=2
[Debug-Master] received:Server received trigger
[Debug-Master] sent to:5 cmd:trigger
[tcAlgorithm] Cx=30, tau=Infinity, level=2
[Debug-Master] received:Server received trigger
[Debug-Master] sent to:6 cmd:trigger
[tcAlgorithm] Cx=30, tau=Infinity, level=2
[Debug-Master] received:Server received trigger
[Debug-Master] sent to:7 cmd:trigger
[tcAlgorithm] Cx=30, tau=Infinity, level=2
[Debug-Master] received:Server received trigger
[Debug-Master] sent to:1 cmd:trigger
[tcAlgorithm] Cx=31, tau=Infinity, level=0
[Debug-Master] received:Server received trigger
[Debug-Master] sent to:2 cmd:trigger
[tcAlgorithm] Cx=31, tau=Infinity, level=1
[Debug-Master] received:Server received trigger
[Debug-Master] sent to:3 cmd:trigger
[tcAlgorithm] Cx=31, tau=Infinity, level=1
[Debug-Master] received:Server received trigger
[Debug-Master] sent to:4 cmd:trigger
[tcAlgorithm] Cx=31, tau=Infinity, level=2
[Debug-Master] received:Server received trigger
[Debug-Master] sent to:5 cmd:trigger
[tcAlgorithm] Cx=31, tau=Infinity, level=2
[Debug-Master] received:Server received trigger
[Debug-Master] sent to:6 cmd:trigger
[tcAlgorithm] Cx=31, tau=Infinity, level=2
[Debug-Master] received:Server received trigger
[Debug-Master] sent to:7 cmd:trigger
[tcAlgorithm] Cx=31, tau=Infinity, level=2
[Debug-Master] received:Server received trigger
[Debug-Master] sent to:1 cmd:trigger
[tcAlgorithm] Cx=32, tau=Infinity, level=0
[Debug-Master] received:Server received trigger
[Debug-Master] sent to:2 cmd:trigger
[tcAlgorithm] Cx=32, tau=Infinity, level=1
[Debug-Master] received:Server received trigger
[Debug-Master] sent to:3 cmd:trigger
[tcAlgorithm] Cx=32, tau=Infinity, level=1
[Debug-Master] received:Server received trigger
[Debug-Master] sent to:4 cmd:trigger
[tcAlgorithm] Cx=32, tau=Infinity, level=2
[Debug-Master] received:Server received trigger
[Debug-Master] sent to:5 cmd:trigger
[tcAlgorithm] Cx=32, tau=Infinity, level=2
[Debug-Master] received:Server received trigger
[Debug-Master] sent to:6 cmd:trigger
[tcAlgorithm] Cx=32, tau=Infinity, level=2
[Debug-Master] received:Server received trigger
[Debug-Master] sent to:7 cmd:trigger
[tcAlgorithm] Cx=32, tau=Infinity, level=2
[Debug-Master] received:Server received trigger
[Debug-Master] sent to:1 cmd:trigger
[tcAlgorithm] Cx=33, tau=Infinity, level=0
[Debug-Master] received:Server received trigger
[Debug-Master] sent to:2 cmd:trigger
[tcAlgorithm] Cx=33, tau=Infinity, level=1
[Debug-Master] received:Server received trigger
[Debug-Master] sent to:3 cmd:trigger
[tcAlgorithm] Cx=33, tau=Infinity, level=1
[Debug-Master] received:Server received trigger
[Debug-Master] sent to:4 cmd:trigger
[tcAlgorithm] Cx=33, tau=Infinity, level=2
[Debug-Master] received:Server received trigger
[Debug-Master] sent to:5 cmd:trigger
[tcAlgorithm] Cx=33, tau=Infinity, level=2
[Debug-Master] received:Server received trigger
[Debug-Master] sent to:6 cmd:trigger
[tcAlgorithm] Cx=33, tau=Infinity, level=2
[Debug-Master] received:Server received trigger
[Debug-Master] sent to:7 cmd:trigger
[tcAlgorithm] Cx=33, tau=Infinity, level=2
[Debug-Master] received:Server received trigger
[Debug-Master] sent to:1 cmd:trigger
[tcAlgorithm] Cx=34, tau=Infinity, level=0
[Debug-Master] received:Server received trigger
[Debug-Master] sent to:2 cmd:trigger
[tcAlgorithm] Cx=34, tau=Infinity, level=1
[Debug-Master] received:Server received trigger
[Debug-Master] sent to:3 cmd:trigger
[tcAlgorithm] Cx=34, tau=Infinity, level=1
[Debug-Master] received:Server received trigger
[Debug-Master] sent to:4 cmd:trigger
[tcAlgorithm] Cx=34, tau=Infinity, level=2
[Debug-Master] received:Server received trigger
[Debug-Master] sent to:5 cmd:trigger
[tcAlgorithm] Cx=34, tau=Infinity, level=2
[Debug-Master] received:Server received trigger
[Debug-Master] sent to:6 cmd:trigger
[tcAlgorithm] Cx=34, tau=Infinity, level=2
[Debug-Master] received:Server received trigger
[Debug-Master] sent to:7 cmd:trigger
[tcAlgorithm] Cx=34, tau=Infinity, level=2
[Debug-Master] received:Server received trigger
[Debug-Master] sent to:1 cmd:trigger
[tcAlgorithm] Cx=35, tau=Infinity, level=0
[Debug-Master] received:Server received trigger
[Debug-Master] sent to:2 cmd:trigger
[tcAlgorithm] Cx=35, tau=Infinity, level=1
[Debug-Master] received:Server received trigger
[Debug-Master] sent to:3 cmd:trigger
[tcAlgorithm] Cx=35, tau=Infinity, level=1
[Debug-Master] received:Server received trigger
[Debug-Master] sent to:4 cmd:trigger
[tcAlgorithm] Cx=35, tau=Infinity, level=2
[Debug-Master] received:Server received trigger
[Debug-Master] sent to:5 cmd:trigger
[tcAlgorithm] Cx=35, tau=Infinity, level=2
[Debug-Master] received:Server received trigger
[Debug-Master] sent to:6 cmd:trigger
[tcAlgorithm] Cx=35, tau=Infinity, level=2
[Debug-Master] received:Server received trigger
[Debug-Master] sent to:7 cmd:trigger
[tcAlgorithm] Cx=35, tau=Infinity, level=2
[Debug-Master] received:Server received trigger
[Debug-Master] sent to:1 cmd:trigger
[tcAlgorithm] Cx=36, tau=Infinity, level=0
[Debug-Master] received:Server received trigger
[Debug-Master] sent to:2 cmd:trigger
[tcAlgorithm] Cx=36, tau=Infinity, level=1
[Debug-Master] received:Server received trigger
[Debug-Master] sent to:3 cmd:trigger
[tcAlgorithm] Cx=36, tau=Infinity, level=1
[Debug-Master] received:Server received trigger
[Debug-Master] sent to:4 cmd:trigger
[tcAlgorithm] Cx=36, tau=Infinity, level=2
[Debug-Master] received:Server received trigger
[Debug-Master] sent to:5 cmd:trigger
[tcAlgorithm] Cx=36, tau=Infinity, level=2
[Debug-Master] received:Server received trigger
[Debug-Master] sent to:6 cmd:trigger
[tcAlgorithm] Cx=36, tau=Infinity, level=2
[Debug-Master] received:Server received trigger
[Debug-Master] sent to:7 cmd:trigger
[tcAlgorithm] Cx=36, tau=Infinity, level=2
[Debug-Master] received:Server received trigger
[Debug-Master] sent to:1 cmd:trigger
[tcAlgorithm] Cx=37, tau=Infinity, level=0
[Debug-Master] received:Server received trigger
[Debug-Master] sent to:2 cmd:trigger
[tcAlgorithm] Cx=37, tau=Infinity, level=1
[Debug-Master] received:Server received trigger
[Debug-Master] sent to:3 cmd:trigger
[tcAlgorithm] Cx=37, tau=Infinity, level=1
[Debug-Master] received:Server received trigger
[Debug-Master] sent to:4 cmd:trigger
[tcAlgorithm] Cx=37, tau=Infinity, level=2
[Debug-Master] received:Server received trigger
[Debug-Master] sent to:5 cmd:trigger
[tcAlgorithm] Cx=37, tau=Infinity, level=2
[Debug-Master] received:Server received trigger
[Debug-Master] sent to:6 cmd:trigger
[tcAlgorithm] Cx=37, tau=Infinity, level=2
[Debug-Master] received:Server received trigger
[Debug-Master] sent to:7 cmd:trigger
[tcAlgorithm] Cx=37, tau=Infinity, level=2
[Debug-Master] received:Server received trigger
[Debug-Master] sent to:1 cmd:trigger
[tcAlgorithm] Cx=38, tau=Infinity, level=0
[Debug-Master] received:Server received trigger
[Debug-Master] sent to:2 cmd:trigger
[tcAlgorithm] Cx=38, tau=Infinity, level=1
[Debug-Master] received:Server received trigger
[Debug-Master] sent to:3 cmd:trigger
[tcAlgorithm] Cx=38, tau=Infinity, level=1
[Debug-Master] received:Server received trigger
[Debug-Master] sent to:4 cmd:trigger
[tcAlgorithm] Cx=38, tau=Infinity, level=2
[Debug-Master] received:Server received trigger
[Debug-Master] sent to:5 cmd:trigger
[tcAlgorithm] Cx=38, tau=Infinity, level=2
[Debug-Master] received:Server received trigger
[Debug-Master] sent to:6 cmd:trigger
[tcAlgorithm] Cx=38, tau=Infinity, level=2
[Debug-Master] received:Server received trigger
[Debug-Master] sent to:7 cmd:trigger
[tcAlgorithm] Cx=38, tau=Infinity, level=2
[Debug-Master] received:Server received trigger
[Debug-Master] sent to:1 cmd:trigger
[tcAlgorithm] Cx=39, tau=Infinity, level=0
[Debug-Master] received:Server received trigger
[Debug-Master] sent to:2 cmd:trigger
[tcAlgorithm] Cx=39, tau=Infinity, level=1
[Debug-Master] received:Server received trigger
[Debug-Master] sent to:3 cmd:trigger
[tcAlgorithm] Cx=39, tau=Infinity, level=1
[Debug-Master] received:Server received trigger
[Debug-Master] sent to:4 cmd:trigger
[tcAlgorithm] Cx=39, tau=Infinity, level=2
[Debug-Master] received:Server received trigger
[Debug-Master] sent to:5 cmd:trigger
[tcAlgorithm] Cx=39, tau=Infinity, level=2
[Debug-Master] received:Server received trigger
[Debug-Master] sent to:6 cmd:trigger
[tcAlgorithm] Cx=39, tau=Infinity, level=2
[Debug-Master] received:Server received trigger
[Debug-Master] sent to:7 cmd:trigger
[tcAlgorithm] Cx=39, tau=Infinity, level=2
[Debug-Master] received:Server received trigger
[Debug-Master] sent to:1 cmd:trigger
[tcAlgorithm] Cx=40, tau=Infinity, level=0
[Debug-Master] received:Server received trigger
[Debug-Master] sent to:2 cmd:trigger
[tcAlgorithm] Cx=40, tau=Infinity, level=1
[Debug-Master] received:Server received trigger
[Debug-Master] sent to:3 cmd:trigger
[tcAlgorithm] Cx=40, tau=Infinity, level=1
[Debug-Master] received:Server received trigger
[Debug-Master] sent to:4 cmd:trigger
[tcAlgorithm] Cx=40, tau=Infinity, level=2
[Debug-Master] received:Server received trigger
[Debug-Master] sent to:5 cmd:trigger
[tcAlgorithm] Cx=40, tau=Infinity, level=2
[Debug-Master] received:Server received trigger
[Debug-Master] sent to:6 cmd:trigger
[tcAlgorithm] Cx=40, tau=Infinity, level=2
[Debug-Master] received:Server received trigger
[Debug-Master] sent to:7 cmd:trigger
[tcAlgorithm] Cx=40, tau=Infinity, level=2
[Debug-Master] received:Server received trigger
[Debug-Master] finished sending triggers
